^C:\USERS\NIKITA\DOCUMENTS\C++PRACTICE\COPYARRAY\COPYARRAY\X64\DEBUG\COPYARRAY.OBJ
/OUT:"C:\USERS\NIKITA\DOCUMENTS\C++PRACTICE\COPYARRAY\X64\DEBUG\COPYARRAY.EXE" /INCREMENTAL /NOLOGO KERNEL32.LIB USER32.LIB GDI32.LIB WINSPOOL.LIB COMDLG32.LIB ADVAPI32.LIB SHELL32.LIB OLE32.LIB OLEAUT32.LIB UUID.LIB ODBC32.LIB ODBCCP32.LIB /MANIFEST /MANIFESTUAC:"level='asInvoker' uiAccess='false'" /manifest:embed /DEBUG:FASTLINK /PDB:"C:\USERS\NIKITA\DOCUMENTS\C++PRACTICE\COPYARRAY\X64\DEBUG\COPYARRAY.PDB" /SUBSYSTEM:CONSOLE /TLBID:1 /DYNAMICBASE /NXCOMPAT /IMPLIB:"C:\USERS\NIKITA\DOCUMENTS\C++PRACTICE\COPYARRAY\X64\DEBUG\COPYARRAY.LIB" /MACHINE:X64 X64\DEBUG\COPYARRAY.OBJ
^C:\USERS\NIKITA\DOCUMENTS\C++PRACTICE\COPYARRAY\COPYARRAY\X64\DEBUG\COPYARRAY.OBJ|C:\USERS\NIKITA\DOCUMENTS\C++PRACTICE\COPYARRAY\COPYARRAY\X64\DEBUG\MATRIX.OBJ
/OUT:"C:\USERS\NIKITA\DOCUMENTS\C++PRACTICE\COPYARRAY\X64\DEBUG\COPYARRAY.EXE" /INCREMENTAL /NOLOGO KERNEL32.LIB USER32.LIB GDI32.LIB WINSPOOL.LIB COMDLG32.LIB ADVAPI32.LIB SHELL32.LIB OLE32.LIB OLEAUT32.LIB UUID.LIB ODBC32.LIB ODBCCP32.LIB /MANIFEST /MANIFESTUAC:"level='asInvoker' uiAccess='false'" /manifest:embed /DEBUG:FASTLINK /PDB:"C:\USERS\NIKITA\DOCUMENTS\C++PRACTICE\COPYARRAY\X64\DEBUG\COPYARRAY.PDB" /SUBSYSTEM:CONSOLE /TLBID:1 /DYNAMICBASE /NXCOMPAT /IMPLIB:"C:\USERS\NIKITA\DOCUMENTS\C++PRACTICE\COPYARRAY\X64\DEBUG\COPYARRAY.LIB" /MACHINE:X64 X64\DEBUG\COPYARRAY.OBJ
X64\DEBUG\MATRIX.OBJ
