^C:\USERS\NIKITA\DOCUMENTS\C++PRACTICE\PRODUCTOFARRAYS\PRODUCTOFARRAYS\PRODUCTOFARRAYS.CPP
C:\USERS\NIKITA\DOCUMENTS\C++PRACTICE\PRODUCTOFARRAYS\PRODUCTOFARRAYS\X64\DEBUG\VC142.PDB
C:\USERS\NIKITA\DOCUMENTS\C++PRACTICE\PRODUCTOFARRAYS\PRODUCTOFARRAYS\X64\DEBUG\VC142.IDB
C:\USERS\NIKITA\DOCUMENTS\C++PRACTICE\PRODUCTOFARRAYS\PRODUCTOFARRAYS\X64\DEBUG\PRODUCTOFARRAYS.OBJ
